D:\Stat\Git\stat\src\main\java\StatDp\Model\response\ReTransaction.java
D:\Stat\Git\stat\src\main\java\StatDp\Model\response\ReTopUpTransfer.java
D:\Stat\Git\stat\src\main\java\StatDp\Model\request\Transaction.java
D:\Stat\Git\stat\src\main\java\StatDp\Model\request\Balance.java
D:\Stat\Git\stat\src\main\java\StatDp\Model\response\Trans.java
D:\Stat\Git\stat\src\main\java\StatDp\Model\response\ReBalance.java
D:\Stat\Git\stat\src\main\java\StatDp\controller\MainController.java
D:\Stat\Git\stat\src\main\java\StatDp\Model\request\TopUpTransfer.java
D:\Stat\Git\stat\src\main\java\StatDp\Model\FuncStat.java
D:\Stat\Git\stat\src\main\java\StatDp\dao\DaoService.java
D:\Stat\Git\stat\src\main\java\StatDp\service\StatService.java
D:\Stat\Git\stat\src\main\java\StatDp\service\StatServiceImpl.java
D:\Stat\Git\stat\src\main\java\StatDp\StatMapper.java
D:\Stat\Git\stat\src\main\java\StatDp\dao\DaoServiceImpl.java
D:\Stat\Git\stat\src\main\java\StatDp\App\Runner.java
